…
# filter is for rows

```

### select: remove columns (variables)

```r
# for columns use select():
> select(mpg, manufacturer, model)
# output:
 
# A tibble: 234 x 2
   manufacturer model     
   <chr>        <chr>     
 1 audi         a4        
 2 audi         a4        
 3 audi         a4        
 4 audi         a4        
 5 audi         a4        
 6 audi         a4        
 7 audi         a4        
 8 audi         a4 quattro
 9 audi         a4 quattro
10 audi         a4 quattro
# ... with 224 more rows

# this gives you every column BUT manufacturer
> select(mpg, -manufacturer)
# A tibble: 234 x 10
   model      displ  year   cyl trans drv     cty   hwy
   <chr>      <dbl> <int> <int> <chr> <chr> <int> <int>
 1 a4           1.8  1999     4 auto~ f        18    29
 2 a4           1.8  1999     4 manu~ f        21    29
 3 a4           2    2008     4 manu~ f        20    31
 4 a4           2    2008     4 auto~ f        21    30
 5 a4           2.8  1999     6 auto~ f        16    26
 6 a4           2.8  1999     6 manu~ f        18    26
 7 a4           3.1  2008     6 auto~ f        18    27
 8 a4 quattro   1.8  1999     4 manu~ 4        18    26
 9 a4 quattro   1.8  1999     4 auto~ 4        16    25
10 a4 quattro   2    2008     4 manu~ 4        20    28
# ... with 224 more rows, and 2 more variables:
#   fl <chr>, class <chr>
…
### arrange: sort the observations

- changes the order of rows (sorting)
- Parameters:
– column names or expressions to order/sort by
– additional columns used to break ties in the
values of preceding columns
- Ascending order by default
– Descending order: desc(cty) or -cty

ex: 

```r
> mpg %>% arrange(cty, hwy)
# A tibble: 234 x 11
   manufacturer model  displ  year   cyl trans drv     cty
   <chr>        <chr>  <dbl> <int> <int> <chr> <chr> <int>
 1 dodge        dakot~   4.7  2008     8 auto~ 4         9
 2 dodge        duran~   4.7  2008     8 auto~ 4         9
 3 dodge        ram 1~   4.7  2008     8 auto~ 4         9
 4 dodge        ram 1~   4.7  2008     8 manu~ 4         9
 5 jeep         grand~   4.7  2008     8 auto~ 4         9
 6 chevrolet    k1500~   5.3  2008     8 auto~ 4        11
 7 jeep         grand~   6.1  2008     8 auto~ 4        11
 8 chevrolet    c1500~   5.3  2008     8 auto~ r        11
 9 chevrolet    k1500~   5.7  1999     8 auto~ 4        11
10 dodge        dakot~   5.2  1999     8 auto~ 4        11
# ... with 224 more rows, and 3 more variables:
#   hwy <int>, fl <chr>, class <chr>
```

[6/7 Classwork 2:](6%207-6%208%20Data%20Wrangling%2000639c29d2b74b98aba0a0b06da1bb1f/6%207%20Classwork%202%207fad1bd628a34c41be82016a5780bd93.md)

### mutate: add or modify variables

- add new columns that are functions of
existing columns
- always adds new columns at the end of the
dataset

```r
> mpg %>% mutate(mileage = (cty+hwy)/2)
# A tibble: 234 x 12
   manufacturer model  displ  year   cyl trans drv     cty
   <chr>        <chr>  <dbl> <int> <int> <chr> <chr> <int>
 1 audi         a4       1.8  1999     4 auto~ f        18
 2 audi         a4       1.8  1999     4 manu~ f        21
 3 audi         a4       2    2008     4 manu~ f        20
 4 audi         a4       2    2008     4 auto~ f        21
 5 audi         a4       2.8  1999     6 auto~ f        16
 6 audi         a4       2.8  1999     6 manu~ f        18
 7 audi         a4       3.1  2008     6 auto~ f        18
 8 audi         a4 qu~   1.8  1999     4 manu~ 4        18
 9 audi         a4 qu~   1.8  1999     4 auto~ 4        16
10 audi         a4 qu~   2    2008     4 manu~ 4        20
# ... with 224 more rows, and 4 more variables:
#   hwy <int>, fl <chr>, class <chr>, mileage <dbl>
…
```

How has the cty mileage changed over the
years for every manufacturer?

```r
> mpg %>% group_by(year, manufacturer) %>% summarize(mean(cty), mean(hwy))
`summarise()` has grouped output by 'year'. You can
override using the `.groups` argument.
# A tibble: 30 x 4
# Groups:   year [2]
    year manufacturer `mean(cty)` `mean(hwy)`
   <int> <chr>              <dbl>       <dbl>
 1  1999 audi                17.1        26.1
 2  1999 chevrolet           15.1        21.6
 3  1999 dodge               13.4        18.4
 4  1999 ford                13.9        18.6
 5  1999 honda               24.8        31.6
 6  1999 hyundai             18.3        26.7
 7  1999 jeep                14.5        18.5
 8  1999 land rover          11          15  
 9  1999 lincoln             11          16.5
10  1999 mercury             13.5        17  
# ... with 20 more rows
…
