# 6/7 Classwork 3:

Load the nycflights13 library (will have to install the nycflights13 package first) which contains flight
arrival and departure data in a table called flights. Apply the tidyverse’s data wrangling verbs to
answer these questions. For each question, give only the (one line) code.

```r
> library(nycflights13)

> nycflights13::flights
# A tibble: 336,776 x 19
    year month   day dep_time sched_dep_time dep_delay
   <int> <int> <int>    <int>          <int>     <dbl>
 1  2013     1     1      517            515         2
 2  2013     1     1      533            529         4
 3  2013     1     1      542            540         2
 4  2013     1     1      544            545        -1
 5  2013     1     1      554            600        -6
 6  2013     1     1      554            558        -4
 7  2013     1     1      555            600        -5
 8  2013     1     1      557            600        -3
 9  2013     1     1      557            600        -3
10  2013     1     1      558            600        -2
# ... with 336,766 more rows, and 13 more variables:
#   arr_time <int>, sched_arr_time <int>,
#   arr_delay <dbl>, carrier <chr>, flight <int>,
#   tailnum <chr>, origin <chr>, dest <chr>,
#   air_time <dbl>, distance <dbl>, hour <dbl>,
#   minute <dbl>, time_hour <dttm>
…
> unique(flights$carrier)
 [1] "UA" "AA" "B6" "DL" "EV" "MQ" "US" "WN" "VX"
[10] "FL" "AS" "9E" "F9" "HA" "YV" "OO"
```

1. List data only for flights that departed on February 12, 2013.
    
    ```r
    > flights %>% filter(year == 2013, month == 2, day == 12)
    # A tibble: 893 x 19
        year month   day dep_time sched_dep_time
       <int> <int> <int>    <int>          <int>
     1  2013     2    12       17           2245
     2  2013     2    12      506            500
     3  2013     2    12      520            525
     4  2013     2    12      524            530
     5  2013     2    12      535            540
     6  2013     2    12      539            540
     7  2013     2    12      551            600
     8  2013     2    12      552            600
     9  2013     2    12      553            600
    10  2013     2    12      555            600
    # ... with 883 more rows, and 14 more variables:
    #   dep_delay <dbl>, arr_time <int>,
    #   sched_arr_time <int>, arr_delay <dbl>,
    #   carrier <chr>, flight <int>, tailnum <chr>,
    #   origin <chr>, dest <chr>, air_time <dbl>,
    #   distance <dbl>, hour <dbl>, minute <dbl>,
    #   time_hour <dttm>
    ```
    
2. List data only for flights that were delayed (both arrival and departure) by more than 2 hours.
    
    ```r
    > flights %>% filter(dep_delay > 2, arr_delay > 2)
    # A tibble: 84,307 x 19
        year month   day dep_time sched_dep_time
       <int> <int> <int>    <int>          <int>
     1  2013     1     1      533            529
     2  2013     1     1      608            600
     3  2013     1     1      611            600
     4  2013     1     1      613            610
     5  2013     1     1      623            610
     6  2013     1     1      632            608
     7  2013     1     1      709            700
     8  2013     1     1      732            645
     9  2013     1     1      743            730
    10  2013     1     1      743            730
    # ... with 84,297 more rows, and 14 more variables:
    #   dep_delay <dbl>, arr_time <int>,
    #   sched_arr_time <int>, arr_delay <dbl>,
    #   carrier <chr>, flight <int>, tailnum <chr>,
    #   origin <chr>, dest <chr>, air_time <dbl>,
    #   distance <dbl>, hour <dbl>, minute <dbl>,
    #   time_hour <dttm>
    ```
    
3. List data only for flights that were delayed (either arrival or departure) by more than 2 hours.
    
    ```r
    > flights %>% filter(dep_delay > 2 | arr_delay > 2)
    # A tibble: 152,938 x 19
        year month   day dep_time sched_dep_time
       <int> <int> <int>    <int>          <int>
     1  2013     1     1      517            515
     2  2013     1     1      533            529
     3  2013     1     1      542            540
     4  2013     1     1      554            558
     5  2013     1     1      555            600
     6  2013     1     1      558            600
     7  2013     1     1      558            600
     8  2013     1     1      559            600
     9  2013     1     1      600            600
    10  2013     1     1      602            605
    # ... with 152,928 more rows, and 14 more
    #   variables: dep_delay <dbl>, arr_time <int>,
    #   sched_arr_time <int>, arr_delay <dbl>,
    #   carrier <chr>, flight <int>, tailnum <chr>,
    #   origin <chr>, dest <chr>, air_time <dbl>,
    #   distance <dbl>, hour <dbl>, minute <dbl>,
    #   time_hour <dttm>
    ```
    
4. List data only for flights that were operated by United, American, or Delta.
    
    ```r
    > flights %>% filter(carrier == "UA" | carrier == "AA" | carrier == "DL")
    # this code gives the same output: 
    > flights %>% filter(carrier == c("UA", "AA", "DL"))
    
    # A tibble: 139,504 x 19
        year month   day dep_time sched_dep_time
       <int> <int> <int>    <int>          <int>
     1  2013     1     1      517            515
     2  2013     1     1      533            529
     3  2013     1     1      542            540
     4  2013     1     1      554            600
     5  2013     1     1      554            558
     6  2013     1     1      558            600
     7  2013     1     1      558            600
     8  2013     1     1      558            600
     9  2013     1     1      559            600
    10  2013     1     1      559            600
    # ... with 139,494 more rows, and 14 more
    #   variables: dep_delay <dbl>, arr_time <int>,
    #   sched_arr_time <int>, arr_delay <dbl>,
    #   carrier <chr>, flight <int>, tailnum <chr>,
    #   origin <chr>, dest <chr>, air_time <dbl>,
    #   distance <dbl>, hour <dbl>, minute <dbl>,
    #   time_hour <dttm>
    ```
    
5. Sort data in order of fastest flights (air_time).
    
    ```r
    > flights %>% arrange(air_time)
    # A tibble: 336,776 x 19
        year month   day dep_time sched_dep_time
       <int> <int> <int>    <int>          <int>
     1  2013     1    16     1355           1315
     2  2013     4    13      537            527
     3  2013    12     6      922            851
     4  2013     2     3     2153           2129
     5  2013     2     5     1303           1315
     6  2013     2    12     2123           2130
     7  2013     3     2     1450           1500
     8  2013     3     8     2026           1935
     9  2013     3    18     1456           1329
    10  2013     3    19     2226           2145
    # ... with 336,766 more rows, and 14 more
    #   variables: dep_delay <dbl>, arr_time <int>,
    #   sched_arr_time <int>, arr_delay <dbl>,
    #   carrier <chr>, flight <int>, tailnum <chr>,
    #   origin <chr>, dest <chr>, air_time <dbl>,
    #   distance <dbl>, hour <dbl>, minute <dbl>,
    #   time_hour <dttm>
    ```
    
6. Sort data in order of longest duration flights (air_time).
    
    ```r
    > flights %>% arrange(air_time)
    # A tibble: 336,776 x 19
        year month   day dep_time sched_dep_time
       <int> <int> <int>    <int>          <int>
     1  2013     1    16     1355           1315
     2  2013     4    13      537            527
     3  2013    12     6      922            851
     4  2013     2     3     2153           2129
     5  2013     2     5     1303           1315
     6  2013     2    12     2123           2130
     7  2013     3     2     1450           1500
     8  2013     3     8     2026           1935
     9  2013     3    18     1456           1329
    10  2013     3    19     2226           2145
    # ... with 336,766 more rows, and 14 more
    #   variables: dep_delay <dbl>, arr_time <int>,
    #   sched_arr_time <int>, arr_delay <dbl>,
    #   carrier <chr>, flight <int>, tailnum <chr>,
    #   origin <chr>, dest <chr>, air_time <dbl>,
    #   distance <dbl>, hour <dbl>, minute <dbl>,
    #   time_hour <dttm>
    ```
    
7. Show only the origin and destination of flights sorted by longest duration flights.
    
    ```r
    > flights %>% arrange(-air_time) %>% select(origin, dest)
    # A tibble: 336,776 x 2
       origin dest 
       <chr>  <chr>
     1 EWR    HNL  
     2 JFK    HNL  
     3 JFK    HNL  
     4 JFK    HNL  
     5 JFK    HNL  
     6 JFK    HNL  
     7 EWR    HNL  
     8 JFK    HNL  
     9 JFK    HNL  
    10 EWR    HNL  
    # ... with 336,766 more rows
    ```
    
8. Add a new variable that indicates the total delay (both departure and arrival delay).
    
    ```r
    > flights %>% mutate(TotalDelay = dep_delay+arr_delay)
    # A tibble: 336,776 x 20
        year month   day dep_time sched_dep_time
       <int> <int> <int>    <int>          <int>
     1  2013     1     1      517            515
     2  2013     1     1      533            529
     3  2013     1     1      542            540
     4  2013     1     1      544            545
     5  2013     1     1      554            600
     6  2013     1     1      554            558
     7  2013     1     1      555            600
     8  2013     1     1      557            600
     9  2013     1     1      557            600
    10  2013     1     1      558            600
    # ... with 336,766 more rows, and 15 more
    #   variables: dep_delay <dbl>, arr_time <int>,
    #   sched_arr_time <int>, arr_delay <dbl>,
    #   carrier <chr>, flight <int>, tailnum <chr>,
    #   origin <chr>, dest <chr>, air_time <dbl>,
    #   distance <dbl>, hour <dbl>, minute <dbl>,
    #   time_hour <dttm>, TotalDelay <dbl>
    
    # ---------------------------------------------------------
    # showing the new column:
    > flights %>% mutate(TotalDelay = dep_delay+arr_delay) %>% select(TotalDelay)
    # A tibble: 336,776 x 1
       TotalDelay
            <dbl>
     1         13
     2         24
     3         35
     4        -19
     5        -31
     6          8
     7         14
     8        -17
     9        -11
    10          6
    # ... with 336,766 more rows
    ```
    
9. Show only the origin and destination of flights sorted by descending order of total delay.
    
    ```r
    > flights %>% mutate(TotalDelay = dep_delay+arr_delay) %>% arrange(TotalDelay) %>% select(origin,dest)
    # A tibble: 336,776 x 2
       origin dest 
       <chr>  <chr>
     1 EWR    SFO  
     2 JFK    SFO  
     3 LGA    MSY  
     4 JFK    PHX  
     5 JFK    MKE  
     6 EWR    SFO  
     7 EWR    SEA  
     8 JFK    MCI  
     9 LGA    DEN  
    10 LGA    DSM  
    # ... with 336,766 more rows
    ```
…
12. Show the average total delay for every departure-arrival city pair.
    
    ```r
    > flights %>% mutate(TotalDelay = dep_delay+arr_delay) %>% group_by(origin, dest) %>% summarize(mean(TotalDelay, na.rm = TRUE))
    `summarise()` has grouped output by 'origin'. You
    can override using the `.groups` argument.
    # A tibble: 224 x 3
    # Groups:   origin [3]
       origin dest  `mean(TotalDelay, na.rm = TRUE)`
       <chr>  <chr>                            <dbl>
     1 EWR    ALB                               37.8
     2 EWR    ANC                               10.4
     3 EWR    ATL                               28.6
     4 EWR    AUS                               11  
     5 EWR    AVL                               17.4
     6 EWR    BDL                               24.8
     7 EWR    BNA                               30.3
     8 EWR    BOS                               17.3
     9 EWR    BQN                               34.5
    10 EWR    BTV                               30.0
    # ... with 214 more rows
…
