# 6/8 Classwork 4

# Consider the dataset: billboard:

<aside>
💡 Hint: convert to tidy data first

</aside>

### Dataset:

```r
> billboard
# A tibble: 317 x 79
   artist     track date.entered   wk1   wk2   wk3
   <chr>      <chr> <date>       <dbl> <dbl> <dbl>
 1 2 Pac      Baby~ 2000-02-26      87    82    72
 2 2Ge+her    The ~ 2000-09-02      91    87    92
 3 3 Doors D~ Kryp~ 2000-04-08      81    70    68
 4 3 Doors D~ Loser 2000-10-21      76    76    72
 5 504 Boyz   Wobb~ 2000-04-15      57    34    25
 6 98^0       Give~ 2000-08-19      51    39    34
 7 A*Teens    Danc~ 2000-07-08      97    97    96
 8 Aaliyah    I Do~ 2000-01-29      84    62    51
 9 Aaliyah    Try ~ 2000-03-18      59    53    38
10 Adams, Yo~ Open~ 2000-08-26      76    76    74
# ... with 307 more rows, and 73 more variables:
…
