# 6/7 Classwork 2:

# Show only manufacturer and cty columns in increasing order of cty

```r
> mpg %>% arrange(cty) %>% select(cty,manufacturer)
# A tibble: 234 x 2
     cty manufacturer
   <int> <chr>       
 1     9 dodge       
 2     9 dodge       
 3     9 dodge       
 4     9 dodge       
 5     9 jeep        
 6    11 chevrolet   
 7    11 chevrolet   
 8    11 chevrolet   
 9    11 dodge       
10    11 dodge       
# ... with 224 more rows
```

# Show only manufacturer,cty,hwy columns in increasing order of cty

```r
> mpg %>% arrange(cty) %>% select(cty,manufacturer,hwy)
# A tibble: 234 x 3
     cty manufacturer   hwy
   <int> <chr>        <int>
 1     9 dodge           12
 2     9 dodge           12
 3     9 dodge           12
 4     9 dodge           12
 5     9 jeep            12
 6    11 chevrolet       15
 7    11 chevrolet       14
 8    11 chevrolet       15
 9    11 dodge           17
10    11 dodge           17
# ... with 224 more rows
```

# Show only manufacturer,cty,hwy columns in increasing order of cty, break ties with hwy

```r
> mpg %>% arrange(cty, hwy) %>% select(cty,manufacturer,hwy)
# A tibble: 234 x 3
     cty manufacturer   hwy
   <int> <chr>        <int>
 1     9 dodge           12
 2     9 dodge           12
 3     9 dodge           12
 4     9 dodge           12
 5     9 jeep            12
 6    11 chevrolet       14
 7    11 jeep            14
 8    11 chevrolet       15
 9    11 chevrolet       15
10    11 dodge           15
# ... with 224 more rows
```

# Show only manufacturer,cty,hwy columns in decreasing order of cty

```r
> mpg %>% arrange(-cty) %>% select(cty,manufacturer,hwy)
# A tibble: 234 x 3
     cty manufacturer   hwy
   <int> <chr>        <int>
 1    35 volkswagen      44
 2    33 volkswagen      44
 3    29 volkswagen      41
 4    28 honda           33
 5    28 toyota          37
 6    26 honda           34
 7    26 toyota          35
 8    26 toyota          35
 9    25 honda           32
10    25 honda           36
# ... with 224 more rows
…
